<svg width="32px" height="32px" viewBox="0 0 32 32" xmlns="http://www.w3.org/2000/svg">
  <path d="M1.568 16.303c-0.068 0-0.125 0.057-0.136 0.129l-0.312 2.875 0.312 2.808c0.011 0.073 0.068 0.131 0.136 0.131s0.12-0.057 0.129-0.131l0.339-2.808-0.359-2.875c0-0.072-0.057-0.129-0.12-0.129zM0.36 17.407c-0.079 0-0.12 0.047-0.141 0.124l-0.219 1.776 0.219 1.74c0 0.079 0.063 0.131 0.12 0.131 0.063 0 0.12-0.063 0.14-0.141l0.281-1.76-0.281-1.776c0-0.084-0.057-0.12-0.119-0.12zM2.797 15.74c-0.079 0-0.157 0.063-0.157 0.14l-0.28 3.417 0.296 3.276c0 0.077 0.063 0.161 0.161 0.161 0.084 0 0.141-0.084 0.161-0.161l0.339-3.297-0.339-3.401c-0.020-0.077-0.083-0.156-0.161-0.156zM4.079 15.599c-0.1 0-0.183 0.079-0.204 0.183l-0.255 3.516 0.281 3.396c0.020 0.099 0.099 0.181 0.197 0.181s0.183-0.083 0.199-0.197l0.323-3.38-0.323-3.495c0-0.1-0.079-0.183-0.177-0.183zM5.62 16.079c-0.011-0.12-0.104-0.199-0.213-0.199-0.12 0-0.213 0.079-0.219 0.199l-0.292 3.239 0.265 3.417c0 0.12 0.104 0.213 0.213 0.213 0.099 0 0.199-0.093 0.199-0.213l0.301-3.417-0.301-3.26zM6.697 13.803c-0.135 0-0.239 0.119-0.239 0.239l-0.281 5.276 0.249 3.417c0 0.12 0.104 0.219 0.24 0.219 0.125 0 0.229-0.12 0.24-0.24l0.276-3.416-0.276-5.297c-0.011-0.14-0.12-0.24-0.24-0.24zM7.943 12.541c-0.14 0-0.26 0.12-0.271 0.261l-0.24 6.495 0.219 3.396c0 0.161 0.12 0.28 0.261 0.28 0.14 0 0.26-0.119 0.281-0.28l0.26-3.396-0.26-6.475c-0.021-0.161-0.141-0.281-0.276-0.281zM9.235 11.943c-0.161 0-0.281 0.12-0.303 0.276l-0.219 7.036 0.219 3.36c0.021 0.156 0.141 0.303 0.303 0.303 0.156 0 0.296-0.141 0.296-0.303l0.261-3.36-0.261-7.036c0-0.156-0.14-0.297-0.296-0.297zM10.891 11.979c0-0.176-0.141-0.317-0.317-0.317-0.161 0-0.323 0.141-0.323 0.317l-0.199 7.256 0.199 3.339c0.020 0.181 0.161 0.323 0.343 0.323 0.177 0 0.319-0.141 0.319-0.323l0.219-3.339-0.219-7.271zM11.891 11.803c-0.183 0-0.339 0.161-0.339 0.337l-0.203 7.1 0.203 3.296c0 0.199 0.156 0.339 0.339 0.339s0.339-0.161 0.339-0.359l0.203-3.303-0.224-7.073c0-0.197-0.156-0.359-0.359-0.359zM13.188 12c-0.219 0-0.376 0.183-0.376 0.38l-0.14 6.86 0.183 3.296c0 0.199 0.156 0.371 0.38 0.371 0.197 0 0.359-0.161 0.375-0.38l0.161-3.256-0.177-6.817c-0.015-0.219-0.181-0.38-0.38-0.38zM14.792 10.812c-0.063-0.036-0.141-0.057-0.219-0.057-0.084 0-0.161 0.021-0.224 0.057-0.12 0.073-0.199 0.204-0.199 0.339v0.084l-0.135 8.063 0.151 3.265v0.011c0.011 0.083 0.041 0.181 0.099 0.239 0.079 0.084 0.188 0.141 0.313 0.141 0.104 0 0.208-0.057 0.276-0.12 0.077-0.079 0.124-0.183 0.124-0.303l0.016-0.317 0.156-2.937-0.177-8.115c0-0.14-0.083-0.255-0.181-0.317zM16.131 10.083c-0.057-0.056-0.12-0.077-0.199-0.077-0.099 0-0.197 0.021-0.281 0.077-0.099 0.084-0.156 0.204-0.156 0.324v0.036l-0.183 8.812 0.1 1.62 0.083 1.579c0 0.219 0.199 0.421 0.437 0.421 0.24 0 0.437-0.203 0.437-0.443l0.204-3.219-0.204-8.849c0-0.156-0.099-0.291-0.219-0.369zM28.063 15.031c-0.536 0-1.057 0.115-1.516 0.313-0.323-3.541-3.281-6.317-6.916-6.317-0.881 0-1.745 0.181-2.521 0.479-0.303 0.12-0.36 0.24-0.38 0.479v12.489c0.020 0.24 0.197 0.444 0.443 0.464h10.911c2.157 0.021 3.917-1.719 3.917-3.896 0-2.181-1.76-3.937-3.917-3.937z"/>
</svg>
